<svg width="99" height="99" viewBox="0 0 99 99" fill="none" xmlns="http://www.w3.org/2000/svg">
<g filter="url(#filter0_d)">
<path d="M31.3 33.3667L33.7267 35.1867C34.0647 34.736 34.2705 34.2001 34.3211 33.6391C34.3717 33.078 34.265 32.514 34.0131 32.0101C33.7612 31.5063 33.3739 31.0825 32.8947 30.7864C32.4155 30.4902 31.8633 30.3334 31.3 30.3334V33.3667ZM22.2 45.5L19.7733 43.68C19.4353 44.1307 19.2295 44.6666 19.1789 45.2276C19.1283 45.7887 19.235 46.3527 19.4869 46.8566C19.7388 47.3604 20.1261 47.7842 20.6053 48.0803C21.0845 48.3765 21.6367 48.5333 22.2 48.5333V45.5ZM81.2651 17.3143L83.5825 19.2738L81.2651 17.3143ZM16.1333 36.4H31.3V30.3334H16.1333V36.4ZM28.8733 31.5467L19.7733 43.68L24.6267 47.32L33.7267 35.1867L28.8733 31.5467ZM22.2 48.5333H25.2333V42.4667H22.2V48.5333ZM25.2333 54.6H16.1333V60.6667H25.2333V54.6ZM28.2667 51.5667C28.2667 52.3712 27.9471 53.1427 27.3782 53.7116C26.8094 54.2804 26.0378 54.6 25.2333 54.6V60.6667C27.6468 60.6667 29.9614 59.7079 31.668 58.0013C33.3746 56.2948 34.3333 53.9801 34.3333 51.5667H28.2667ZM25.2333 48.5333C26.0378 48.5333 26.8094 48.8529 27.3782 49.4218C27.9471 49.9906 28.2667 50.7622 28.2667 51.5667H34.3333C34.3333 49.1532 33.3746 46.8386 31.668 45.132C29.9614 43.4254 27.6468 42.4667 25.2333 42.4667V48.5333ZM52.5333 30.3334H49.5V36.4H52.5333V30.3334ZM40.4 39.4333V45.5H46.4667V39.4333H40.4ZM40.4 45.5V51.5667H46.4667V45.5H40.4ZM49.5 42.4667H43.4333V48.5333H49.5V42.4667ZM58.6 51.5667C58.6 49.1532 57.6413 46.8386 55.9347 45.132C54.2281 43.4254 51.9135 42.4667 49.5 42.4667V48.5333C50.3045 48.5333 51.076 48.8529 51.6449 49.4218C52.2137 49.9906 52.5333 50.7622 52.5333 51.5667H58.6ZM49.5 60.6667C51.9135 60.6667 54.2281 59.7079 55.9347 58.0013C57.6413 56.2948 58.6 53.9801 58.6 51.5667H52.5333C52.5333 52.3712 52.2137 53.1427 51.6449 53.7116C51.076 54.2804 50.3045 54.6 49.5 54.6V60.6667ZM49.5 54.6C48.6955 54.6 47.924 54.2804 47.3551 53.7116C46.7863 53.1427 46.4667 52.3712 46.4667 51.5667H40.4C40.4 53.9801 41.3587 56.2948 43.0653 58.0013C44.7719 59.7079 47.0865 60.6667 49.5 60.6667V54.6ZM49.5 30.3334C47.0865 30.3334 44.7719 31.2921 43.0653 32.9987C41.3587 34.7053 40.4 37.0199 40.4 39.4333H46.4667C46.4667 38.6289 46.7863 37.8573 47.3551 37.2885C47.924 36.7196 48.6955 36.4 49.5 36.4V30.3334ZM76.8 39.4333V51.5667H82.8667V39.4333H76.8ZM70.7333 51.5667V39.4333H64.6667V51.5667H70.7333ZM73.7667 54.6C72.9622 54.6 72.1906 54.2804 71.6218 53.7116C71.0529 53.1427 70.7333 52.3712 70.7333 51.5667H64.6667C64.6667 53.9801 65.6254 56.2948 67.332 58.0013C69.0386 59.7079 71.3532 60.6667 73.7667 60.6667V54.6ZM76.8 51.5667C76.8 52.3712 76.4804 53.1427 75.9116 53.7116C75.3427 54.2804 74.5712 54.6 73.7667 54.6V60.6667C76.1801 60.6667 78.4948 59.7079 80.2013 58.0013C81.9079 56.2948 82.8667 53.9801 82.8667 51.5667H76.8ZM73.7667 36.4C74.5712 36.4 75.3427 36.7196 75.9116 37.2885C76.4804 37.8573 76.8 38.6289 76.8 39.4333H82.8667C82.8667 37.0199 81.9079 34.7053 80.2013 32.9987C78.4948 31.2921 76.1801 30.3334 73.7667 30.3334V36.4ZM73.7667 30.3334C71.3532 30.3334 69.0386 31.2921 67.332 32.9987C65.6254 34.7053 64.6667 37.0199 64.6667 39.4333H70.7333C70.7333 38.6289 71.0529 37.8573 71.6218 37.2885C72.1906 36.7196 72.9622 36.4 73.7667 36.4V30.3334ZM49.5 84.9333C39.0416 84.9333 29.0116 80.7788 21.6164 73.3836C14.2212 65.9884 10.0667 55.9584 10.0667 45.5H4C4 57.5674 8.79374 69.1405 17.3266 77.6734C25.8595 86.2063 37.4326 91 49.5 91V84.9333ZM88.9333 45.5C88.9333 50.6785 87.9134 55.8062 85.9316 60.5905C83.9499 65.3748 81.0453 69.7219 77.3836 73.3836C73.7219 77.0453 69.3748 79.9499 64.5905 81.9316C59.8062 83.9134 54.6785 84.9333 49.5 84.9333V91C61.5673 91 73.1404 86.2063 81.6734 77.6734C90.2063 69.1405 95 57.5674 95 45.5H88.9333ZM49.5 2.51393e-05C37.4326 2.51393e-05 25.8595 4.79376 17.3266 13.3267C8.79374 21.8596 4 33.4327 4 45.5H10.0667C10.0667 35.0416 14.2212 25.0116 21.6164 17.6164C29.0116 10.2213 39.0416 6.06669 49.5 6.06669V2.51393e-05ZM85.9 18.2C86.7045 18.2 87.476 18.5196 88.0449 19.0885C88.6138 19.6573 88.9333 20.4289 88.9333 21.2334H95C95 18.8199 94.0413 16.5053 92.3347 14.7987C90.6281 13.0921 88.3135 12.1334 85.9 12.1334V18.2ZM85.9 24.2667C85.0955 24.2667 84.324 23.9471 83.7551 23.3782C83.1862 22.8094 82.8667 22.0378 82.8667 21.2334H76.8C76.8 23.6468 77.7587 25.9614 79.4653 27.668C81.1719 29.3746 83.4865 30.3334 85.9 30.3334V24.2667ZM82.8667 21.2334C82.8667 20.4872 83.1336 19.8077 83.5825 19.2738L78.9537 15.3548C77.6129 16.9382 76.8 18.9948 76.8 21.2334H82.8667ZM83.5825 19.2738C83.867 18.9365 84.2218 18.6655 84.6222 18.48C85.0226 18.2945 85.4587 18.1989 85.9 18.2V12.1334C83.1093 12.1334 80.6159 13.3892 78.9537 15.3548L83.5825 19.2738ZM49.5 6.06669C61.2329 6.06669 71.7707 11.187 78.9961 19.3284L83.534 15.3002C79.269 10.484 74.0292 6.62934 68.1617 3.99158C62.2942 1.35383 55.9331 -0.00674463 49.5 2.51393e-05V6.06669ZM85.0143 28.3314C87.5259 33.5244 88.9333 39.3424 88.9333 45.5H95C95 38.402 93.3741 31.6862 90.4743 25.6924L85.0143 28.3374V28.3314ZM88.9333 21.2334C88.9342 21.8773 88.7301 22.5049 88.3505 23.0252C87.9709 23.5454 87.4357 23.9314 86.8221 24.1272L88.6664 29.9026C90.505 29.3159 92.1094 28.1599 93.2479 26.6016C94.3864 25.0432 95 23.1633 95 21.2334H88.9333ZM86.8221 24.1272C86.5238 24.2209 86.2127 24.268 85.9 24.2667V30.3334C86.8385 30.3353 87.7717 30.192 88.6664 29.9087L86.8221 24.1272Z" fill="white"/>
</g>
<defs>
<filter id="filter0_d" x="0" y="0" width="99" height="99" filterUnits="userSpaceOnUse" color-interpolation-filters="sRGB">
<feFlood flood-opacity="0" result="BackgroundImageFix"/>
<feColorMatrix in="SourceAlpha" type="matrix" values="0 0 0 0 0 0 0 0 0 0 0 0 0 0 0 0 0 0 127 0" result="hardAlpha"/>
<feOffset dy="4"/>
<feGaussianBlur stdDeviation="2"/>
<feComposite in2="hardAlpha" operator="out"/>
<feColorMatrix type="matrix" values="0 0 0 0 0 0 0 0 0 0 0 0 0 0 0 0 0 0 0.25 0"/>
<feBlend mode="normal" in2="BackgroundImageFix" result="effect1_dropShadow"/>
<feBlend mode="normal" in="SourceGraphic" in2="effect1_dropShadow" result="shape"/>
</filter>
</defs>
</svg>
