<svg width="34" height="34" viewBox="0 0 34 34" fill="none" xmlns="http://www.w3.org/2000/svg">
<g clip-path="url(#clip0_4456:2132)">
<path d="M6.92355 21.0659C6.40782 20.5502 6.11809 19.8507 6.11809 19.1213C6.11809 18.392 6.40782 17.6925 6.92355 17.1768L17.1766 6.92375C17.6923 6.40802 18.3918 6.11829 19.1211 6.11829C19.8505 6.11829 20.55 6.40802 21.0657 6.92375L22.3031 8.16118L8.16098 22.3033L6.92355 21.0659Z" fill="white"/>
<path d="M9.22168 23.364L23.3638 9.22182L27.0761 12.9341C27.5919 13.4499 27.8816 14.1493 27.8816 14.8787C27.8816 15.608 27.5919 16.3075 27.0761 16.8232L16.8231 27.0763C16.3074 27.592 15.6079 27.8817 14.8785 27.8817C14.1492 27.8817 13.4497 27.592 12.934 27.0763L9.22168 23.364ZM21.4193 16.1161C21.2786 16.2568 21.1996 16.4475 21.1996 16.6464C21.1996 16.8454 21.2786 17.0361 21.4193 17.1768C21.5599 17.3174 21.7507 17.3964 21.9496 17.3964C22.1485 17.3964 22.3393 17.3174 22.4799 17.1768L24.2477 15.409C24.3884 15.2683 24.4674 15.0776 24.4674 14.8787C24.4674 14.6798 24.3884 14.489 24.2477 14.3483C24.107 14.2077 23.9163 14.1287 23.7174 14.1287C23.5185 14.1287 23.3277 14.2077 23.187 14.3483L21.4193 16.1161Z" fill="white"/>
</g>
<defs>
<clipPath id="clip0_4456:2132">
<rect width="24" height="24" fill="white" transform="translate(0.0292969 17) rotate(-45)"/>
</clipPath>
</defs>
</svg>
