<svg width="34" height="34" viewBox="0 0 34 34" fill="none" xmlns="http://www.w3.org/2000/svg">
<circle cx="17" cy="17" r="17" fill="#2D9CDB"/>
<path d="M21.9458 16.1398H17.8602V12.0543C17.8602 11.936 17.7634 11.8392 17.6452 11.8392H16.355C16.2367 11.8392 16.14 11.936 16.14 12.0543V16.1398H12.0544C11.9361 16.1398 11.8394 16.2366 11.8394 16.3549V17.645C11.8394 17.7633 11.9361 17.8601 12.0544 17.8601H16.14V21.9456C16.14 22.0639 16.2367 22.1607 16.355 22.1607H17.6452C17.7634 22.1607 17.8602 22.0639 17.8602 21.9456V17.8601H21.9458C22.064 17.8601 22.1608 17.7633 22.1608 17.645V16.3549C22.1608 16.2366 22.064 16.1398 21.9458 16.1398Z" fill="#171717"/>
<path d="M17.0002 4.95825C10.3504 4.95825 4.9585 10.3501 4.9585 16.9999C4.9585 23.6497 10.3504 29.0416 17.0002 29.0416C23.65 29.0416 29.0418 23.6497 29.0418 16.9999C29.0418 10.3501 23.65 4.95825 17.0002 4.95825ZM17.0002 26.9988C11.4793 26.9988 7.00128 22.5208 7.00128 16.9999C7.00128 11.479 11.4793 7.00103 17.0002 7.00103C22.5211 7.00103 26.999 11.479 26.999 16.9999C26.999 22.5208 22.5211 26.9988 17.0002 26.9988Z" fill="#171717"/>
</svg>
